{
  "page": 1,
  "per_page": 15,
  "photos": [
    {
      "id": 792416,
      "width": 4167,
      "height": 2976,
      "url": "https://www.pexels.com/photo/photography-of-small-blue-and-brown-bird-792416/",
      "photographer": "Tina Nord",
      "photographer_url": "https://www.pexels.com/@nord6",
      "photographer_id": 259428,
      "avg_color": "#A4A3A5",
      "src": {
        "original": "https://images.pexels.com/photos/792416/pexels-photo-792416.jpeg",
        "large2x": "https://images.pexels.com/photos/792416/pexels-photo-792416.jpeg?auto=compress&cs=tinysrgb&dpr=2&h=650&w=940",
        "large": "https://images.pexels.com/photos/792416/pexels-photo-792416.jpeg?auto=compress&cs=tinysrgb&h=650&w=940",
        "medium": "https://images.pexels.com/photos/792416/pexels-photo-792416.jpeg?auto=compress&cs=tinysrgb&h=350",
        "small": "https://images.pexels.com/photos/792416/pexels-photo-792416.jpeg?auto=compress&cs=tinysrgb&h=130",
        "portrait": "https://images.pexels.com/photos/792416/pexels-photo-792416.jpeg?auto=compress&cs=tinysrgb&fit=crop&h=1200&w=800",
        "landscape": "https://images.pexels.com/photos/792416/pexels-photo-792416.jpeg?auto=compress&cs=tinysrgb&fit=crop&h=627&w=1200",
        "tiny": "https://images.pexels.com/photos/792416/pexels-photo-792416.jpeg?auto=compress&cs=tinysrgb&dpr=1&fit=crop&h=200&w=280"
      },
      "liked": false,
      "alt": "Photography of Small Blue and Brown Bird"
    },
    {
      "id": 70069,
      "width": 3109,
      "height": 2072,
      "url": "https://www.pexels.com/photo/gray-small-bird-on-green-leaves-70069/",
      "photographer": "daniyal ghanavati",
      "photographer_url": "https://www.pexels.com/@daniyal-ghanavati-10741",
      "photographer_id": 10741,
      "avg_color": "#6C7D26",
      "src": {
        "original": "https://images.pexels.com/photos/70069/pexels-photo-70069.jpeg",
        "large2x": "https://images.pexels.com/photos/70069/pexels-photo-70069.jpeg?auto=compress&cs=tinysrgb&dpr=2&h=650&w=940",
        "large": "https://images.pexels.com/photos/70069/pexels-photo-70069.jpeg?auto=compress&cs=tinysrgb&h=650&w=940",
        "medium": "https://images.pexels.com/photos/70069/pexels-photo-70069.jpeg?auto=compress&cs=tinysrgb&h=350",
        "small": "https://images.pexels.com/photos/70069/pexels-photo-70069.jpeg?auto=compress&cs=tinysrgb&h=130",
        "portrait": "https://images.pexels.com/photos/70069/pexels-photo-70069.jpeg?auto=compress&cs=tinysrgb&fit=crop&h=1200&w=800",
        "landscape": "https://images.pexels.com/photos/70069/pexels-photo-70069.jpeg?auto=compress&cs=tinysrgb&fit=crop&h=627&w=1200",
        "tiny": "https://images.pexels.com/photos/70069/pexels-photo-70069.jpeg?auto=compress&cs=tinysrgb&dpr=1&fit=crop&h=200&w=280"
      },
      "liked": false,
      "alt": "Gray Small Bird on Green Leaves"
    },
    {
      "id": 17811,
      "width": 3456,
      "height": 5184,
      "url": "https://www.pexels.com/photo/black-and-green-toucan-on-tree-branch-17811/",
      "photographer": "Carlos Spitzer",
      "photographer_url": "https://www.pexels.com/@lestrade84",
      "photographer_id": 1557,
      "avg_color": "#657040",
      "src": {
        "original": "https://images.pexels.com/photos/17811/pexels-photo.jpg",
        "large2x": "https://images.pexels.com/photos/17811/pexels-photo.jpg?auto=compress&cs=tinysrgb&dpr=2&h=650&w=940",
        "large": "https://images.pexels.com/photos/17811/pexels-photo.jpg?auto=compress&cs=tinysrgb&h=650&w=940",
        "medium": "https://images.pexels.com/photos/17811/pexels-photo.jpg?auto=compress&cs=tinysrgb&h=350",
        "small": "https://images.pexels.com/photos/17811/pexels-photo.jpg?auto=compress&cs=tinysrgb&h=130",
        "portrait": "https://images.pexels.com/photos/17811/pexels-photo.jpg?auto=compress&cs=tinysrgb&fit=crop&h=1200&w=800",
        "landscape": "https://images.pexels.com/photos/17811/pexels-photo.jpg?auto=compress&cs=tinysrgb&fit=crop&h=627&w=1200",
        "tiny": "https://images.pexels.com/photos/17811/pexels-photo.jpg?auto=compress&cs=tinysrgb&dpr=1&fit=crop&h=200&w=280"
      },
      "liked": false,
      "alt": "Black and Green Toucan on Tree Branch"
    },
    {
      "id": 75973,
      "width": 3369,
      "height": 2242,
      "url": "https://www.pexels.com/photo/white-dove-on-brown-surface-under-blue-sky-75973/",
      "photographer": "mali maeder",
      "photographer_url": "https://www.pexels.com/@mali",
      "photographer_id": 7311,
      "avg_color": "#BAC2C6",
      "src": {
        "original": "https://images.pexels.com/photos/75973/pexels-photo-75973.jpeg",
        "large2x": "https://images.pexels.com/photos/75973/pexels-photo-75973.jpeg?auto=compress&cs=tinysrgb&dpr=2&h=650&w=940",
        "large": "https://images.pexels.com/photos/75973/pexels-photo-75973.jpeg?auto=compress&cs=tinysrgb&h=650&w=940",
        "medium": "https://images.pexels.com/photos/75973/pexels-photo-75973.jpeg?auto=compress&cs=tinysrgb&h=350",
        "small": "https://images.pexels.com/photos/75973/pexels-photo-75973.jpeg?auto=compress&cs=tinysrgb&h=130",
        "portrait": "https://images.pexels.com/photos/75973/pexels-photo-75973.jpeg?auto=compress&cs=tinysrgb&fit=crop&h=1200&w=800",
        "landscape": "https://images.pexels.com/photos/75973/pexels-photo-75973.jpeg?auto=compress&cs=tinysrgb&fit=crop&h=627&w=1200",
        "tiny": "https://images.pexels.com/photos/75973/pexels-photo-75973.jpeg?auto=compress&cs=tinysrgb&dpr=1&fit=crop&h=200&w=280"
      },
      "liked": false,
      "alt": "White Dove on Brown Surface Under Blue Sky"
    },
    {
      "id": 6831526,
      "width": 5472,
      "height": 3648,
      "url": "https://www.pexels.com/photo/woman-with-little-innocent-chick-in-hands-6831526/",
      "photographer": "Helena Lopes",
      "photographer_url": "https://www.pexels.com/@wildlittlethingsphoto",
      "photographer_id": 210984,
      "avg_color": "#9E7559",
      "src": {
        "original": "https://images.pexels.com/photos/6831526/pexels-photo-6831526.jpeg",
        "large2x": "https://images.pexels.com/photos/6831526/pexels-photo-6831526.jpeg?auto=compress&cs=tinysrgb&dpr=2&h=650&w=940",
        "large": "https://images.pexels.com/photos/6831526/pexels-photo-6831526.jpeg?auto=compress&cs=tinysrgb&h=650&w=940",
        "medium": "https://images.pexels.com/photos/6831526/pexels-photo-6831526.jpeg?auto=compress&cs=tinysrgb&h=350",
        "small": "https://images.pexels.com/photos/6831526/pexels-photo-6831526.jpeg?auto=compress&cs=tinysrgb&h=130",
        "portrait": "https://images.pexels.com/photos/6831526/pexels-photo-6831526.jpeg?auto=compress&cs=tinysrgb&fit=crop&h=1200&w=800",
        "landscape": "https://images.pexels.com/photos/6831526/pexels-photo-6831526.jpeg?auto=compress&cs=tinysrgb&fit=crop&h=627&w=1200",
        "tiny": "https://images.pexels.com/photos/6831526/pexels-photo-6831526.jpeg?auto=compress&cs=tinysrgb&dpr=1&fit=crop&h=200&w=280"
      },
      "liked": false,
      "alt": "Side view of crop anonymous female with cute small domesticated chick on blurred background"
    },
    {
      "id": 57021,
      "width": 3888,
      "height": 2592,
      "url": "https://www.pexels.com/photo/red-parakeet-on-green-leaf-plant-57021/",
      "photographer": "Claire Thibault",
      "photographer_url": "https://www.pexels.com/@claire-thibault-10977",
      "photographer_id": 10977,
      "avg_color": "#437341",
      "src": {
        "original": "https://images.pexels.com/photos/57021/pexels-photo-57021.jpeg",
        "large2x": "https://images.pexels.com/photos/57021/pexels-photo-57021.jpeg?auto=compress&cs=tinysrgb&dpr=2&h=650&w=940",
        "large": "https://images.pexels.com/photos/57021/pexels-photo-57021.jpeg?auto=compress&cs=tinysrgb&h=650&w=940",
        "medium": "https://images.pexels.com/photos/57021/pexels-photo-57021.jpeg?auto=compress&cs=tinysrgb&h=350",
        "small": "https://images.pexels.com/photos/57021/pexels-photo-57021.jpeg?auto=compress&cs=tinysrgb&h=130",
        "portrait": "https://images.pexels.com/photos/57021/pexels-photo-57021.jpeg?auto=compress&cs=tinysrgb&fit=crop&h=1200&w=800",
        "landscape": "https://images.pexels.com/photos/57021/pexels-photo-57021.jpeg?auto=compress&cs=tinysrgb&fit=crop&h=627&w=1200",
        "tiny": "https://images.pexels.com/photos/57021/pexels-photo-57021.jpeg?auto=compress&cs=tinysrgb&dpr=1&fit=crop&h=200&w=280"
      },
      "liked": false,
      "alt": "Red Parakeet on Green Leaf Plant"
    },
    {
      "id": 973165,
      "width": 6000,
      "height": 4000,
      "url": "https://www.pexels.com/photo/white-and-black-birds-973165/",
      "photographer": "Soumadeep Das",
      "photographer_url": "https://www.pexels.com/@soumadeep-das-358678",
      "photographer_id": 358678,
      "avg_color": "#A79E8B",
      "src": {
        "original": "https://images.pexels.com/photos/973165/pexels-photo-973165.jpeg",
        "large2x": "https://images.pexels.com/photos/973165/pexels-photo-973165.jpeg?auto=compress&cs=tinysrgb&dpr=2&h=650&w=940",
        "large": "https://images.pexels.com/photos/973165/pexels-photo-973165.jpeg?auto=compress&cs=tinysrgb&h=650&w=940",
        "medium": "https://images.pexels.com/photos/973165/pexels-photo-973165.jpeg?auto=compress&cs=tinysrgb&h=350",
        "small": "https://images.pexels.com/photos/973165/pexels-photo-973165.jpeg?auto=compress&cs=tinysrgb&h=130",
        "portrait": "https://images.pexels.com/photos/973165/pexels-photo-973165.jpeg?auto=compress&cs=tinysrgb&fit=crop&h=1200&w=800",
        "landscape": "https://images.pexels.com/photos/973165/pexels-photo-973165.jpeg?auto=compress&cs=tinysrgb&fit=crop&h=627&w=1200",
        "tiny": "https://images.pexels.com/photos/973165/pexels-photo-973165.jpeg?auto=compress&cs=tinysrgb&dpr=1&fit=crop&h=200&w=280"
      },
      "liked": false,
      "alt": "White and Black Birds"
    },
    {
      "id": 145378,
      "width": 2780,
      "height": 1853,
      "url": "https://www.pexels.com/photo/macro-photography-of-brown-and-white-bird-on-spike-branch-145378/",
      "photographer": "DAMIANUM CASTRUM",
      "photographer_url": "https://www.pexels.com/@damianum-castrum-42052",
      "photographer_id": 42052,
      "avg_color": "#9B8473",
      "src": {
        "original": "https://images.pexels.com/photos/145378/pexels-photo-145378.jpeg",
        "large2x": "https://images.pexels.com/photos/145378/pexels-photo-145378.jpeg?auto=compress&cs=tinysrgb&dpr=2&h=650&w=940",
        "large": "https://images.pexels.com/photos/145378/pexels-photo-145378.jpeg?auto=compress&cs=tinysrgb&h=650&w=940",
        "medium": "https://images.pexels.com/photos/145378/pexels-photo-145378.jpeg?auto=compress&cs=tinysrgb&h=350",
        "small": "https://images.pexels.com/photos/145378/pexels-photo-145378.jpeg?auto=compress&cs=tinysrgb&h=130",
        "portrait": "https://images.pexels.com/photos/145378/pexels-photo-145378.jpeg?auto=compress&cs=tinysrgb&fit=crop&h=1200&w=800",
        "landscape": "https://images.pexels.com/photos/145378/pexels-photo-145378.jpeg?auto=compress&cs=tinysrgb&fit=crop&h=627&w=1200",
        "tiny": "https://images.pexels.com/photos/145378/pexels-photo-145378.jpeg?auto=compress&cs=tinysrgb&dpr=1&fit=crop&h=200&w=280"
      },
      "liked": false,
      "alt": "Macro Photography of Brown and White Bird on Spike Branch"
    },
    {
      "id": 689784,
      "width": 4339,
      "height": 2892,
      "url": "https://www.pexels.com/photo/selective-focus-photography-of-two-penguins-689784/",
      "photographer": "DSD",
      "photographer_url": "https://www.pexels.com/@dsd-143941",
      "photographer_id": 143941,
      "avg_color": "#888A8D",
      "src": {
        "original": "https://images.pexels.com/photos/689784/pexels-photo-689784.jpeg",
        "large2x": "https://images.pexels.com/photos/689784/pexels-photo-689784.jpeg?auto=compress&cs=tinysrgb&dpr=2&h=650&w=940",
        "large": "https://images.pexels.com/photos/689784/pexels-photo-689784.jpeg?auto=compress&cs=tinysrgb&h=650&w=940",
        "medium": "https://images.pexels.com/photos/689784/pexels-photo-689784.jpeg?auto=compress&cs=tinysrgb&h=350",
        "small": "https://images.pexels.com/photos/689784/pexels-photo-689784.jpeg?auto=compress&cs=tinysrgb&h=130",
        "portrait": "https://images.pexels.com/photos/689784/pexels-photo-689784.jpeg?auto=compress&cs=tinysrgb&fit=crop&h=1200&w=800",
        "landscape": "https://images.pexels.com/photos/689784/pexels-photo-689784.jpeg?auto=compress&cs=tinysrgb&fit=crop&h=627&w=1200",
        "tiny": "https://images.pexels.com/photos/689784/pexels-photo-689784.jpeg?auto=compress&cs=tinysrgb&dpr=1&fit=crop&h=200&w=280"
      },
      "liked": false,
      "alt": "Selective Focus Photography of Two Penguins"
    },
    {
      "id": 788655,
      "width": 2455,
      "height": 3634,
      "url": "https://www.pexels.com/photo/selective-focus-photography-of-pink-flamingo-788655/",
      "photographer": "Jacqueline Smith",
      "photographer_url": "https://www.pexels.com/@jacquelie",
      "photographer_id": 257580,
      "avg_color": "#7F6559",
      "src": {
        "original": "https://images.pexels.com/photos/788655/pexels-photo-788655.jpeg",
        "large2x": "https://images.pexels.com/photos/788655/pexels-photo-788655.jpeg?auto=compress&cs=tinysrgb&dpr=2&h=650&w=940",
        "large": "https://images.pexels.com/photos/788655/pexels-photo-788655.jpeg?auto=compress&cs=tinysrgb&h=650&w=940",
        "medium": "https://images.pexels.com/photos/788655/pexels-photo-788655.jpeg?auto=compress&cs=tinysrgb&h=350",
        "small": "https://images.pexels.com/photos/788655/pexels-photo-788655.jpeg?auto=compress&cs=tinysrgb&h=130",
        "portrait": "https://images.pexels.com/photos/788655/pexels-photo-788655.jpeg?auto=compress&cs=tinysrgb&fit=crop&h=1200&w=800",
        "landscape": "https://images.pexels.com/photos/788655/pexels-photo-788655.jpeg?auto=compress&cs=tinysrgb&fit=crop&h=627&w=1200",
        "tiny": "https://images.pexels.com/photos/788655/pexels-photo-788655.jpeg?auto=compress&cs=tinysrgb&dpr=1&fit=crop&h=200&w=280"
      },
      "liked": false,
      "alt": "Selective Focus Photography of Pink Flamingo"
    },
    {
      "id": 808267,
      "width": 4863,
      "height": 3242,
      "url": "https://www.pexels.com/photo/white-and-gray-bird-standing-on-seaside-808267/",
      "photographer": "Tina Nord",
      "photographer_url": "https://www.pexels.com/@nord6",
      "photographer_id": 259428,
      "avg_color": "#C5C3B7",
      "src": {
        "original": "https://images.pexels.com/photos/808267/pexels-photo-808267.jpeg",
        "large2x": "https://images.pexels.com/photos/808267/pexels-photo-808267.jpeg?auto=compress&cs=tinysrgb&dpr=2&h=650&w=940",
        "large": "https://images.pexels.com/photos/808267/pexels-photo-808267.jpeg?auto=compress&cs=tinysrgb&h=650&w=940",
        "medium": "https://images.pexels.com/photos/808267/pexels-photo-808267.jpeg?auto=compress&cs=tinysrgb&h=350",
        "small": "https://images.pexels.com/photos/808267/pexels-photo-808267.jpeg?auto=compress&cs=tinysrgb&h=130",
        "portrait": "https://images.pexels.com/photos/808267/pexels-photo-808267.jpeg?auto=compress&cs=tinysrgb&fit=crop&h=1200&w=800",
        "landscape": "https://images.pexels.com/photos/808267/pexels-photo-808267.jpeg?auto=compress&cs=tinysrgb&fit=crop&h=627&w=1200",
        "tiny": "https://images.pexels.com/photos/808267/pexels-photo-808267.jpeg?auto=compress&cs=tinysrgb&dpr=1&fit=crop&h=200&w=280"
      },
      "liked": false,
      "alt": "White and Gray Bird Standing on Seaside"
    },
    {
      "id": 808533,
      "width": 1920,
      "height": 1280,
      "url": "https://www.pexels.com/photo/close-up-shot-of-a-peacock-808533/",
      "photographer": "sk",
      "photographer_url": "https://www.pexels.com/@rgsk97",
      "photographer_id": 227545,
      "avg_color": "#252E26",
      "src": {
        "original": "https://images.pexels.com/photos/808533/pexels-photo-808533.jpeg",
        "large2x": "https://images.pexels.com/photos/808533/pexels-photo-808533.jpeg?auto=compress&cs=tinysrgb&dpr=2&h=650&w=940",
        "large": "https://images.pexels.com/photos/808533/pexels-photo-808533.jpeg?auto=compress&cs=tinysrgb&h=650&w=940",
        "medium": "https://images.pexels.com/photos/808533/pexels-photo-808533.jpeg?auto=compress&cs=tinysrgb&h=350",
        "small": "https://images.pexels.com/photos/808533/pexels-photo-808533.jpeg?auto=compress&cs=tinysrgb&h=130",
        "portrait": "https://images.pexels.com/photos/808533/pexels-photo-808533.jpeg?auto=compress&cs=tinysrgb&fit=crop&h=1200&w=800",
        "landscape": "https://images.pexels.com/photos/808533/pexels-photo-808533.jpeg?auto=compress&cs=tinysrgb&fit=crop&h=627&w=1200",
        "tiny": "https://images.pexels.com/photos/808533/pexels-photo-808533.jpeg?auto=compress&cs=tinysrgb&dpr=1&fit=crop&h=200&w=280"
      },
      "liked": false,
      "alt": "Close-Up Shot of a Peacock"
    },
    {
      "id": 860605,
      "width": 6000,
      "height": 4000,
      "url": "https://www.pexels.com/photo/close-up-photograph-of-person-feeding-white-pigeon-860605/",
      "photographer": "Valeria Boltneva",
      "photographer_url": "https://www.pexels.com/@valeriya",
      "photographer_id": 665,
      "avg_color": "#827762",
      "src": {
        "original": "https://images.pexels.com/photos/860605/pexels-photo-860605.jpeg",
        "large2x": "https://images.pexels.com/photos/860605/pexels-photo-860605.jpeg?auto=compress&cs=tinysrgb&dpr=2&h=650&w=940",
        "large": "https://images.pexels.com/photos/860605/pexels-photo-860605.jpeg?auto=compress&cs=tinysrgb&h=650&w=940",
        "medium": "https://images.pexels.com/photos/860605/pexels-photo-860605.jpeg?auto=compress&cs=tinysrgb&h=350",
        "small": "https://images.pexels.com/photos/860605/pexels-photo-860605.jpeg?auto=compress&cs=tinysrgb&h=130",
        "portrait": "https://images.pexels.com/photos/860605/pexels-photo-860605.jpeg?auto=compress&cs=tinysrgb&fit=crop&h=1200&w=800",
        "landscape": "https://images.pexels.com/photos/860605/pexels-photo-860605.jpeg?auto=compress&cs=tinysrgb&fit=crop&h=627&w=1200",
        "tiny": "https://images.pexels.com/photos/860605/pexels-photo-860605.jpeg?auto=compress&cs=tinysrgb&dpr=1&fit=crop&h=200&w=280"
      },
      "liked": false,
      "alt": "Close Up Photograph Of Person Feeding White Pigeon"
    },
    {
      "id": 1010264,
      "width": 3550,
      "height": 2367,
      "url": "https://www.pexels.com/photo/bird-perched-on-plant-1010264/",
      "photographer": "DSD",
      "photographer_url": "https://www.pexels.com/@dsd-143941",
      "photographer_id": 143941,
      "avg_color": "#454C43",
      "src": {
        "original": "https://images.pexels.com/photos/1010264/pexels-photo-1010264.jpeg",
        "large2x": "https://images.pexels.com/photos/1010264/pexels-photo-1010264.jpeg?auto=compress&cs=tinysrgb&dpr=2&h=650&w=940",
        "large": "https://images.pexels.com/photos/1010264/pexels-photo-1010264.jpeg?auto=compress&cs=tinysrgb&h=650&w=940",
        "medium": "https://images.pexels.com/photos/1010264/pexels-photo-1010264.jpeg?auto=compress&cs=tinysrgb&h=350",
        "small": "https://images.pexels.com/photos/1010264/pexels-photo-1010264.jpeg?auto=compress&cs=tinysrgb&h=130",
        "portrait": "https://images.pexels.com/photos/1010264/pexels-photo-1010264.jpeg?auto=compress&cs=tinysrgb&fit=crop&h=1200&w=800",
        "landscape": "https://images.pexels.com/photos/1010264/pexels-photo-1010264.jpeg?auto=compress&cs=tinysrgb&fit=crop&h=627&w=1200",
        "tiny": "https://images.pexels.com/photos/1010264/pexels-photo-1010264.jpeg?auto=compress&cs=tinysrgb&dpr=1&fit=crop&h=200&w=280"
      },
      "liked": false,
      "alt": "Bird Perched on Plant"
    },
    {
      "id": 1007227,
      "width": 4095,
      "height": 2974,
      "url": "https://www.pexels.com/photo/brown-bird-in-shallow-photo-1007227/",
      "photographer": "Robert  Stokoe",
      "photographer_url": "https://www.pexels.com/@robert-stokoe-105922",
      "photographer_id": 105922,
      "avg_color": "#4F5347",
      "src": {
        "original": "https://images.pexels.com/photos/1007227/pexels-photo-1007227.jpeg",
        "large2x": "https://images.pexels.com/photos/1007227/pexels-photo-1007227.jpeg?auto=compress&cs=tinysrgb&dpr=2&h=650&w=940",
        "large": "https://images.pexels.com/photos/1007227/pexels-photo-1007227.jpeg?auto=compress&cs=tinysrgb&h=650&w=940",
        "medium": "https://images.pexels.com/photos/1007227/pexels-photo-1007227.jpeg?auto=compress&cs=tinysrgb&h=350",
        "small": "https://images.pexels.com/photos/1007227/pexels-photo-1007227.jpeg?auto=compress&cs=tinysrgb&h=130",
        "portrait": "https://images.pexels.com/photos/1007227/pexels-photo-1007227.jpeg?auto=compress&cs=tinysrgb&fit=crop&h=1200&w=800",
        "landscape": "https://images.pexels.com/photos/1007227/pexels-photo-1007227.jpeg?auto=compress&cs=tinysrgb&fit=crop&h=627&w=1200",
        "tiny": "https://images.pexels.com/photos/1007227/pexels-photo-1007227.jpeg?auto=compress&cs=tinysrgb&dpr=1&fit=crop&h=200&w=280"
      },
      "liked": false,
      "alt": "Brown Bird in Shallow Photo"
    }
  ],
  "total_results": 8000,
  "next_page": "https://api.pexels.com/v1/search/?page=2&per_page=15&query=birds"
}